{
  "id": "/InitialApplication",
  "$schema": "http://json-schema.org/draft-04/schema",
  "type": "object",
  "properties": {
    "first_name": {
      "type": "string",
      "minLength": 1
    },
    "last_name": {
      "type": "string",
      "minLength": 1
    },
    "phone_number": {
      "type": "string"
    },
    "email": {
      "type": "string"
    },
    "date_of_birth": {
      "type": "string",
      "pattern": "^[0-9]{4}-[0-9]{2}-[0-9]{2}$"
    },
    "gender": {
      "type": "string"
    },
    "nationalities": {
      "type": "array",
      "items": {
        "type": "string"
      }
    },
    "spoken_languages": {
      "type": "array",
      "items": {
        "type": "object",
        "properties": {
          "language": {
            "type": "string"
          },
          "points": {
            "type": "number"
          }
        },
        "additionalProperties": false,
        "required": [
          "language",
          "points"
        ]
      }
    },
    "positions": {
      "type": "array",
      "uniqueItems": true,
      "items": {
        "type": "string",
        "allOf": [
          {
            "enum": [
              "master",
              "1st-officer",
              "2nd-officer",
              "chief-eng",
              "2nd-3rd-eng",
              "ship-elec-it",
              "bosun",
              "ab-seaman",
              "guest-coord",
              "cook",
              "rib-driver",
              "medic",
              "cult-coord",
              "media-coord",
              "hom"
            ]
          }
        ]
      }
    },
    "motivation": {
      "type": "string"
    },
    "qualification": {
      "type": "string"
    }
  },
  "additionalProperties": false,
  "required": [
    "first_name",
    "last_name",
    "email",
    "phone_number",
    "date_of_birth",
    "gender",
    "nationalities",
    "spoken_languages",
    "motivation",
    "qualification"
  ]
}
